<?xml version="1.0" encoding="UTF-8" standalone="no"?>
<!-- Created with Inkscape (http://www.inkscape.org/) -->

<svg
   xmlns:dc="http://purl.org/dc/elements/1.1/"
   xmlns:cc="http://creativecommons.org/ns#"
   xmlns:rdf="http://www.w3.org/1999/02/22-rdf-syntax-ns#"
   xmlns:svg="http://www.w3.org/2000/svg"
   xmlns="http://www.w3.org/2000/svg"
   xmlns:xlink="http://www.w3.org/1999/xlink"
   xmlns:sodipodi="http://sodipodi.sourceforge.net/DTD/sodipodi-0.dtd"
   xmlns:inkscape="http://www.inkscape.org/namespaces/inkscape"
   version="1.1"
   id="svg3972"
   width="512"
   height="512"
   viewBox="0 0 512 512"
   sodipodi:docname="peakmonsters_red.svg"
   inkscape:version="0.92.5 (2060ec1f9f, 2020-04-08)">
  <metadata
     id="metadata3978">
    <rdf:RDF>
      <cc:Work
         rdf:about="">
        <dc:format>image/svg+xml</dc:format>
        <dc:type
           rdf:resource="http://purl.org/dc/dcmitype/StillImage" />
        <dc:title></dc:title>
      </cc:Work>
    </rdf:RDF>
  </metadata>
  <defs
     id="defs3976" />
  <sodipodi:namedview
     pagecolor="#ffffff"
     bordercolor="#666666"
     borderopacity="1"
     objecttolerance="10"
     gridtolerance="10"
     guidetolerance="10"
     inkscape:pageopacity="0"
     inkscape:pageshadow="2"
     inkscape:window-width="2966"
     inkscape:window-height="1278"
     id="namedview3974"
     showgrid="false"
     inkscape:zoom="0.65186406"
     inkscape:cx="-318.18669"
     inkscape:cy="237.47315"
     inkscape:window-x="325"
     inkscape:window-y="313"
     inkscape:window-maximized="0"
     inkscape:current-layer="svg3972" />
  <image
     width="512"
     height="512"
     preserveAspectRatio="none"
     xlink:href="data:image/png;base64,iVBORw0KGgoAAAANSUhEUgAAAgAAAAIACAQAAABecRxxAAAAAmJLR0QA/4ePzL8AACuRSURBVHja 7Z15gI5VG8avmTGWQY19KUuylRaRKCokiWhhSEqKhjbzpb5UWqZ90oLkC0WSpKm02MqQsiQ1hawR KnsY6wxjmff7gzDMzLs855znLNfv+sc/3nne+76v8z7Pec65D0AIIYQQQgghhBBCCCGEEEIIIYQQ QgghhBBCCCGEEEIIIYQQQgghhBBCCCGEEEIIIYQQQgghxAjOwAVogx54EkPxBdKwAL9gDf5GBjKw AWuwBkuRjlkYjzfxFHrjJtRHcYaNEHMpgWa4B4PwDf5GICKtx0wMRz80R0mGkxAzqIquGIpfcThC 2+elw1iCUeiN+oj29bsVY3oJye82vyNGYb1A2+elbZiAu3C2T9+xDxox0YTkpjYexkwclGz93FqK 13E5ohR/095YjwpMOCFHKY1EzFVq/Nz6G0PQTOEw0B0BzENhJp64Thy6YarQ5/zItRrPoqqSb90J AQTwJtNPXKYGUrBDC+uf0BGkIQGFJH/zdsf+2t0sAuImLfEFjmhm/hNahydQTuq3P/p3snAhS4G4 RSH0wBJtrX9CmRiCKpJi0OT4X1mBEiwJ4grRSMDvBpj/Xx3EWNSVEIf6J/2Nj1gWxA3zd8Fyg8x/ YlZgAmoLjkXtXH+BMwHEAS5DAlqjKS5GDZRBqZNUCTXREM1xA7rgAbyAMZiOZdil1Z3AMJQXGIsq pzxs1GN5EHIq8WiCuzEQk7FGgwnDPXhK2MaiSqctRyrKdBNS0GBwPZ7DTOz1dRDYhO5ClgtVPu2T BzHFhAQnBg3wBOb7eEfwLep4/hZnn/apObiGySUkVMqhBz7BPl+GgANIRhGBcwD/blouxbQSEg4l 0dOnPQS/o7mH666W52eOZ0IJCZ86eBlbfXg9+HrE9wHn5POZXZhMQiKhCLpjlfJBYCnqR3S15+bb paA8U0lIZEQjAUuVzwf0j6C7UK18P+8DppEQL4PA3diieBCYEfbvdu0CPu16JpEQLxRHMg4oHQI2 oElYV1i3gM/6i61LCfFKXcxS/CjQO4yrq1fgZ7FRCCGeiUISspUOAh8gLsRraxzk/QJbhhIigMuw WukQ8DMqhnRdLYN8zjzlbUoJsZKSmKC4l9B5IVxVh6Cf052pI0TMo0Cy0iEgI4Q1grcF/ZQtOJOp I0QMfZVuHjqA24JcT2IIn/Ia00aIKDopfTGYg/8WeDWPhdSEpBbTRogoblR8+kBKAdfyWkif8DGT Rog4+iheIfhKvlfyXoj3EU2YNELE8bziIWBYPq/zvgzx/3/HlBEijih8oHgIGJrnEDAn5P/fhkkj RBwlFS8NCmBwHlexJuT/vZBLguykNC7CNbgFd+MhJGMw3sNEzEQ60pGOhViD5cf+PRNTkYqRGIRk PIDOuBr12DrKE40VH0AewFOn3YfsD+N/d2DKbLj1rIJm6IbH8TamYKnn3rZ7sRRTMRz/RXvUkn6U pW0MUN445P5cf79sWP/3JybMVOJxFe7DcMzDbqnllY1lmID+aBPiSnTXicF85e3Dup709y8O839f x5SZRCV0Qgqm4C+fOtdPxCNohmJMRAFcqryt+MGTGn20DfP/zmHC9CcaF6APxmKtNodZ/YAX0JIn zuTDaOUZ2YuLj/3t+8P+v82ZMF2JxVV4ElOxU9OjLfdjBh7F+UzUKVRT3CvgaK+fCgCAN8L+n18x YfpRBffgM8lP9+K0BkNwLWKZtuO87UMWfkBRAF9FMIdQkwnThUJohhSkI8fAo64zMBbtUZhJBFDL l+PFPkZURIekD2bC/KcUeuBLn46jEqkdGIXmXGCCSb5Ef0BE+xJ34wwa0D9K425M9eGpUabWIhk1 LMlPPEqhDGocVxmUQqmgdzrtjcpXEm3oB2XRC18rXzumbt/6d+hqxCNBNM5CQ7TDXXgCgzEeUzEX S/B3kDmYI8jABqzGz5iGcRiCp3AfbkFjVEIUgFj8Y1CultOMaimBHkjDIUutf7K24iVU1y7+cbgE t2IA3kEaVgu/+8rGWszGRqPyxM3BiojC1RjjebmuWTqCrzR42xyLS9ATb2Aa1hk5ySpXw2lN+VTH M9os5lGvdNzqw86CQmiAe/EOfrFslkW0dnJ9p0yK407M4u8O0lFaUcTPxPV4DjMdu9fyoq60qRzq YLC2a/lUKgsvKWhHXQQt8CIWKO7RZ4Om0qqiicFNmM7ffQRwGKNxtuRo18RD+AaZjHbEU5fsBSGQ 8uiPdSwrBBBAGupLfYnXEMlIZ5w9iycGCaIxxik+Qlrnp/6WEq3fHG8b9b5db31J63ovyQ6YzVI6 pnW4TdKi4Cg0xZvYxBgL3t1Zkhb2Mv3UCytYRsf3BPRDESlxPhsDlDffdEWdaePIKIUnsJkFdPyX ZKCUCaUi6IKvfdln54pG08qR/CIN5tvmk3YAfIRqUqL8ArYyvpL1N+0cPnFIDqsVs836Cc0kRLgh xlq7ZUo31aGhI6EKxjpfOuuRiGjhk6rt8SNtqVAP0MyR0t6w/V8itRcDhK8lL4b7wjjlhhKjL2jk yIkP8WRW2576x6Gy4EgWx2N8v++LtrObkzeud+zt9CJcKfyXvx+n+3wUW4R6pDy+caRUMnA/YoTG rjAe5PIen9WNFva+Ti3J+lnrHIxFeeGzKFzg47+G0MAiuNLq29iFuExwvBpjrmNGexfrtbyu+TSv GKphoZWFuw8PC+7sUxnjnds0vQ9RiEZTDMYG7dZxxtC8ouayP7GucL9CVaExikFfY05AEnsPdSIC rfEhsjS6tnNpXXGzAa9ZVLQbcIvg+FyGXxx90p5wSiTOxD3a9DRoR+OK5GErbm9z8Lbg82PiMMTh jT2v5DMTMkaDZeUP07Ri6Wb8O4E/0Ur4JKnbM/798o1MGQzAFl+v7R1aVjQ3GtyUOgcjhP/2D3J+ U+/tBUaoKO7BSt+u7XsaVjztDW0S9hdaC45EfR9LWx+1CRqnaCRgiS/X9gftKoN2Bg4B7wr+7Y/C g+yWiAACIZ6UFI3OWKr82rJoVjncZNRpgBnoJPj7l8GXtP4xXRFy1KLRDX8qvrp4mlUOPYx5IzBH 8Pt+oBH+pvGPq1FYsSuKR5UeLnM+rSrvpaD+xXkYycJXg93Frkm51DSC+6e3lJ13dA2NKo9XtZ/2 E73BtzCG0fKn6LqIInkJ5iu5uo60qTyiMVHjwpwkvJ9vGcyh4YVZLBo9sU361fGMIKnE4WdN3/gn C+/qdy5+p93zUG8PMS2PVMlX14cmlUs9Dd8H7EJ74d+zMXv75KMXPEa2o9TVglwMLJXbNLTFMtQW /j078KzefDVWwKPVx9Ku7mmaVBY18LWG5fiphFPhuhm16kG1fhD0bkXOkTTP06gyKIT+Gv4m5uBp CZ1g7+ERXgVqn6AXrbWlzCc9Q7OKpw5+0rAQs6XM+P7HuQ4/4es8YS9ZBwm/tidpV7FEoY+Wz8O7 pCz5eJj2DkF3Coz4rdgn9Noeo2VFUl7TNfAbUV/Ct72Lv/4h6QOhUa+LZQKv7RGaVhzXa3rGzULh 5/kcnfrjs39o2ix45uVMTBN2baN5PpAYYvCcpoZIkzDvD9zImf8wJLq1eiG8JfD+pAjt65WyWr7y CyCAacKP8gSARnzvH5YGSchBorAheB7K0sJeaKLt9tcvpYzuNXicZ5jaJKUD/w3ChuEVOIc2jpQe 2nYB/BSxEr5vKaygpcPWzVJqr6mw3gFbhD+mOPLS70VtS+4jwaf6HCUW39LOEWi2pAq8GJsFXWGm pEHKYopJXKPtfQW6nGOfXqeZI1QjSVV4LtYKusIjeIimDued/3yNf/2jpXznTnzzH7GmS6vEqlgj 8IcjjtYOhWpYpW2pzZT0Yqe2k2f7iVMradVYBX8Iu8pFPDEwOOdrd9LrCf2EEpIeeJbQxJ60BIUl /iCtE3adGWhLixfEpQJaNa2TtGxoJcpJ+tZDaGGtt95UF/gy+giekfQQaQHNBdwI70BNjJZQYBtQ XdK3vpZP/wK0HxdKvS/dLvBaJwvvGWkFLQWc734I1wCohD2CyytDWnmV0viRxyytkPSAdpTGQvcK /iFlC5nRNBMS4PuOfdrjQkvrYIiHUEXCh7SuMH0odfvNdUKXpe3Hf7hZ6OTxVcQs+NvHP6+osDe4 AQTwoLTv3Zq2FapnpVbpHYIf1r6RspfUQBoIWXb5ba7luV2EpWmMtO9dFKtpWsG6R2qlPi/4arfh Jtq/rpAJljUok+tTo5AuJEU/o6i0b/4sDStcR9BLYq1GSThNYCSKu2z/SkLesmbhojxm171/7lZU kfbNa/GQbynKkfjIBhST0JXyd2mLmbWnJH4REsK8T2GZ4Xny72qJ3/1TmlWahkjarwEAlYVtEjq5 0gZI2WCmObGCmn2k5rusyNukTV+J370J3/5L1dcoLy13V0np2bQQDVwbAMQs2FmDM/P9C597+NxJ Ur/79zSpZG3GtdKyJ6dn8yG8IqXLlKb0ExK07ALbLVzq4em/gsTvfoOTljyIjfgVUzAGKeifSwPx LibiOyzBRhwWOBsw6pSpYXGTgbIe4FajhRv2byXoNqpfkL8zNcLP7SD12y9wxvTZWIxx6I+2qBpi bIqgHm5Gf4zCHOwQ8KLtPikbhZoLHKhOHbZGIt52+58jaG315KCrqa6I8NWMTFo6YPzDWIDncZXH 1mk3CnpIvFPgIBCLBMyRHL2NdvcQKo7FQsL0T0gTPTMjuA0rIfX7f2O19bPwARJQWkikrhZoqQEC HuoaYLCyU6m/QA1bB4DxgkLUJaS/1iLsqZjLpX77Bhab/wfcU8CUbPhcLHiSbSq6RbQTrxCa41X8 rnyH44s2LhLqJSg8n4X8F+eG9bnPSf7+H1i6HfdN1BUeq+pSHk7m4RlcF9JAUApX4wlM9bFf03p0 tWvTUD1BHde3h3FD1yaMz10msbcMAJTBfuvMfwBDcZaUaMVLXTH4B6ZhKPqhO9qiCRqiIRqhFW7C nXgKI/CNNhu1Z9uzeVhc86vbwvq7P4VcFFdKjsBDlpn/EIbhbGnRiuYpicfuWt6W9EJTMSOETZDI mU1+R/L3j7Ls6I9fpa9e20X7H9MOJEm+O5XOjcJCUSls4y0P6a1CackRuNKq2f7+Ctav/0nrn6R1 uMPcjoKlhW2iuCuCv94nhM/tLT0Gwyz67a+ppGoW0fanaDHamTkAiGp+9XNEY2Bc0KVHiyTuIPv3 iXaTJUWYquz11He0fB6aL3WfqhTaC/rqRyI+anFgkE9uLj0Gza0ovhykKLwN/ZJ2z0dpuNgc+5cR dvv/bsTXUK3A3QefKYjCUCs29HRSWjnv0+oFvBt4z5TVgqMEfeWdnnZ5f1LAy6y6CqLwlwUl10Vx 5fDQlGCvYcegtu72v0JY8wtvLTqa5fu5IxREoY4FN/+JymuHfRNDeSyehEv0tX8hYTO5Szy/dsq7 AVmmpHVsubnP+ELr60P19KPBQxwEUvPoi6kFScK+ZEvP19I9z88dqCQOEw0vsWG+VM/dNHcYd2if o6Fu9q8kbCPFFAFXUySPychMid3jThCDDKOL60efVqF1pLHDHAQmS1/OHhbvCftiYp5ykk/75DeU xOF8o8sqE7V8qp9raOoItACdpa9qCYmLhW3mSBV0RVVOaeW0P+xlxZFxh9EFleRbBTWknSNeNpyE kn4PAF8L+jKHBb6mm5zrk99SFIlBBpfSIh9/Tc6llT29Nk9RMsGdD9cK+yKjBV7VjbkGFlULKUxu A97cx5+QsrSxR2VjrD9rBqOxUNBXOIBqQl9Lbjz+yZ8oikUU9hhbQDN8folMC4tQN/Wpu03YxQ8V fGUvHP/kJsrehZhbOn5vO9lL+wqYQq+qOm0xwlpfZKKi4Gs759jU5Fxl0WhqbOks9n0ieQMN7Flz Tf79l7EAZToCCOBWZdEw9x3Avb4PAEtpYM96QP3zv6jef4elNJ5IQAD/oIiyeCQbu9WknO8DwFwa 2LOHKqhOWldhF/+plOsrjK14UWE8xhhaOtM1WEsymRb2qDT1v//LhF28rGm6l4W+WQjGJENL5yEN BoAPaWGP6qk6ZeLOvp0j7RrjlEZknqGlo0PPmWG0sMd1AKVUp2ymsIu/EXaw3MjS2aNFB9oXaWJP +kp1wi4S1v5jpbktkE9hq5GlM0+L2D1KE3tSV9UJE9fFLRG2YOZxYCO1iF0iTexpFU0JtemqjGxB l75X9aVL5JCRxTNAi9h1oY09aILqdIl74z0c9nDYyOLpoUXsrqONPegWtcmKEdj5tqFFA4CZxXOT FrFrTBtHrN0opjZZHSxagy5yXYSZ5dNai+jVoZEj1hjVyRK34OU+iwaAKGHvRdSqpRbRq0gjR6zr 1abqbGHPulmIh02YuaX1Oi1iV4RGjlDbEKs2Vc+Ye+siGTO3tOqyDGs/zWzGNPoqYZfe1LIBwMyV gD01id5mmjkiKW7l0kTYha9FlGUDwHwjC+gJTaK3kmaOQJtUt3J9U9ilD4RtTDOyhN7WJHo/0s4R aJDaJBXCFmGXfpl1A8A7RpbQLE2i9yQ20dBhq4naJLURduF/WvcAADxtZAlt0SiCF+G/mIEDNLau j9Hiet68BvvoYWgZVdEsjsXRDkPxOw0eVC+rfgDYLuzSG1s4ALQ0tIw6axrPc5CIVOyk0fPVRaYW +N8WPgCYe8DVm1pHNRZX4yX8Iuz8SXu0XHUqhgq79DdgIzHINLKQVhkR3bJIwAieH3CSnlKbgCiB ewCbwU5+NrSUahoT4Sg0wOP4Dgc5AKC22tBfKnD7YqylA8AoQ0vpv8ZFOg6tkCKwL7V5SlcdcnFN QD6HrfzH0GL61diI18IDmIR9Dg4AygftH7gJ2Nr3AAGcZ3Tci6AlXsEiQzdkR6IcpSdeAIgX2PGu lrUDQLyhbcGULymVRCX0wHhsc2AAUN7LuaPANYA2s9DQgtqJ4tbkIBoN0R9pwhrX6ijlB4EOF3bp I60eAIYYW1KJ1uXiTHTESPxpof0Po6LqYK4RdvEJVg8AnYwtqjUoZGlOaiARqdhj0QCg/CDQc4Rd +hGUtnoAKG/wRFQ3qzNTFK3xOpZaMQD0Uh28O4Rd+kLYjrkltsLae4CTORs9kYoMg+2frf5HdISw i3/b+gJLMbi0EuEKMccmCk1cUfiV+nCJW3HV0/rSamrwALDRoncBoVEanTHKsB0G3dQHSdxOrAut L6logV2T1OsFuEkNJGKSEZ2J9+MM1cERdxLQPieeMkcb/XxZF+5SDK2QgnStM/Sx+rC8LOziZztR RjcbPcM8w8peDeFRHb3xGXZpmZ+O6sMxXdjFv+pE+RQ1vItNL5ATE4VztWpFskf1QaAABK6t7uxI 6bxj9ACwW/VGE8052opkvRa5eV/9168m8PLPcaRkrjJ8ockMRNP3pxCF+uiPb33eYdDW5Cfa3Q4V yzrDh4DH6Ph8KIH2eAurfcnKdj9a6bwg7PJ/cqhMnjd8ADhk3cmNojm6w0DtROFwP77oZGGX/6FD 5VHT+C62f6EsXR6UwmiBl/Groh0gLfz4iuJuZp9xqjSmGL/lZI61vRvFUw4JGIGNUvOh/CBQAIgT +Et2q1Ml0cb4ASCAwXR2mNST2IrEl65NDQV+gQaOzRrbcLjV3fR0BJyBmzFc+ETw5X58lTsEfoGS jpXBgxYMAAfRmn72OFG4W9CcjC8rNF8SuNPMvd+B3RYMAbtVn0BnHUXQCq/iN495SPHn4j8XVkiz HEz9K1b0n9mAc+liAVTGXZgQ8QG79f256MXCymiMgykvb+hpgaffflanfwURg8Z4Gj+E2UB+hV+X K66VYoqT6R5kSRtKDgGiKYH2GBFyz2KfXqGXFVhC/ZxMc0VkWTIE/MktQhInCoP90Pp0ctOlAgvo dkcT/JYlA0AAq1CZfpXEv61I8l5R+Itfl5UgsHxcfZ1UxYhGU6FpOSrQq1Kpinvw6Wn9JPr7dTmP Ciye+s4m9RVrBoAAVnIuQAGF0BTPYcGxVbg5/sVc5EFXlZxNZ7xVx1VuwiV0qCLK4Fa8h8/9u4BU YWWT40Q70Pzoa9EAEMBeXE9vusEcYUWzzek4xmKVVUPAIdxDc7jAKoEzyG7T0aoBIIAcPEF72M9e YQWzxPFIRuE7y4aAAP7nx/50oo6SAosl3flo1sYB64aA7/ha0GZqCCyVHxhOgTsr9dHfuIyJtRWR 6wBnMZwohjUWDgEHkMTU2kkrgWXyNcMJO9qE5aUPEMfk2ofImeuvGE4AwGeWDgG/OnPoi0P0FFgg nzCcAIBK2GHpELAD7Zheu3hEYHmMYziP0dXSASCAHIxAcSbYHp4TWBzvM5zHSbV2CAhgJd8K2MPr AgtjAsN5nLLYbPEQcAgpKMwk28D/OAkoifYWDwABBPAT6jLJ5jNaYEnMYDhzMcbyISALD/rTx56I Y7zAgpjHcOaipBXnBhWs6ajKRJvM5wKL4VeG8xQutKZdaP7KRDLnA8zla6Gzw+RU7rN+AAgggN9w BVNtJjOFbhohp5PqxBBwBCNRmsk2j28FFsE2htPRmYB/1wkmclLQ5QEgk+HMk0stahoeTN/y5aBZ zBKa/mIMaJ7c6cwAEEA2XkQJptwUxDax4sFS+THYoSEggG1IcrpDtLMDwKUMaD7EYJpTQ0AAK5HA tLs2ALRlQPOljJW9goLNCDRk4vUmTWjC72JAC+BCgR2YzXk9OI4PhjozWWi6kxnQArnl2Elwbmk/ XkE8k68nYttXjWZAg9DPwQHg6LTgf9lIREc+Eppm7gcMzmBHh4AAtiEZZ7IA9ELsltVVDGhQoq1t GhqKtnMQ0IvhgheB8O1vcIphnsNDwNFBgHMClt6Q1mJIQ6Ac/nB6CAhgB57EGSwE/3lWcGJvYEhD oha2Oj4EBJCBp/k44DcPC05qP4Y0RC609vSAcLQHQ7hOwE96CU7oSIY0ZC53cGFQ3j2GJ7DRuF8k CE7mfIY0DFo6tFE4mNLRnVPI6rlOeIe4GAY1DDrgIM1/XGvQn7MCamkiPIlsCBEeHXGY1j9JuzEE VVgWqqgtPIG3Mqhhz8McofFz6SDGoTELQwXxwpM3kEENm54cAvLQQvThWgH5HBCcttkMaQR0xSFa Ps+dhKloxfKQyXrBKctCLIMaAbdyCCjgDUEi+wzK4hfh6WIXmMjozCGgwCVDI3AJi0Q84nvVPcCg RkgCXwryXkA17wtP0scMasR0QjZtHkS7MBT1WCqieEl4grbyfBgPtMAemjzEe4E4lot37pWQnAsZ Vg80wjYaPCTtxAjeC3jlBgmJSWJYPVEPG2nvEJWD6ejIXQSRc7GEpHzJsHrkHKymucPQOvRl09HI KCUhHftQhIH1SAUspLHDnBwcgkosnPCRsSv9WobVM/GCz21yQVkYhhosnfBYJiERgxhWARTBOJo6 bB3GBC5GC4evpOzsJiKIQjItHZHSuG4wVF6XkgD2BRDF3VwfGJGOYDy7VIfCvVLC/yQDK4xrsIuG jnAQSOWcQDBaSQn9YgZWIPXwJ+0cobIxAhVZQvlTTVLgazO0AqmMn2nmiLUXT/DVdH5ES+pNO4Ch FUpRCRu3XNIfPLYmP5ZICfgSBlb4O4H+bB7mSZNQk2V0OhMkhbsBQyucNthJI3tqODoEJVlGuXlS UrCHMLQSqIvfaWRP+hsdWUYnc7OkQP/D/oBSOEPK4i23lIpyLKR/qSktzB0YXCnEYCByaGOPjWs6 sZD+fQ+wT1KQJzO40ujA2QDeB4giXdpKrHMYXGnUwmKa2PN9AOcDAIySFuCXGFyJxHFtgAB9wE7D 90kL7j9cgSWZ7siiiT1qpet9LJtIDO5t9KhkGmIdTexRmbjT5RIqJvFUmnQ6VDqlMYkm9qxRKOZu Cf0mMbDN6VDpRCFJ+EGv7mm5u23G35O6ApuooAHXCHrWbrRxs3gekBjUHPYHUkQJjKGJPeoQertY Oo2kBnU0vamMTlwgJGAXS7RrZROLTIkBPczubAqphnk0sUdNdO/kQbld6N+hL5UO5wPZOcCjfkR5 t4rmJanhPIhq9KVSWrCPoOceQlVdKpgbJIdzOD2pmDM5JehRa1HdnXIpI3mD6UHOA/hAW2yikT01 D3GoidgKycH8iH70gQr4kkb2oPXu/HANlxzKHJ7Z5hMJyKCVI9YWV9YHdpYeym/oRZ+oju9p5Yi1 yY3zhcoraDPVml70iWj0ldb5yX79jrIuFMlSBdst2CjUz/uANJo5Qv2E4vYXyJsKAtmXPvSRKHTH Dto5wk1thWwvj5sVhDHDjZspjamEibRzRBphe2mUxmEFYXybHvSd27Gdho5Aj9peGPMVBPEILqcD NZjyHUtDR1C7lk9jP60kjAvtf5oygpuwnqYOU1txls0lcZmiMD5C92lBHFIk9oO0U/NR2N6CiMZW JUHMdGNphRFcrOTBzya9ZnM5jFMUxGmIovc0IQYPYDeNHcai9ltsnh9WFcZedJ5GVOSkYBjaZe9M QDklrwIDCGC3Ww0XDKAtjxgJo2mYtajbNpLGxwDtJgVf4vkCIaqzrUXQT2EQ76XntKMWptDeIb0Q tHRNa3WFQczEeXSchrTCclo8qD60Nf2/KQziQp4frCVFMIDbh4OqrZ3Jf15pEAfRbZpyFsYq6BFh slbaub39UsVvVdvTa9pytdL7QfNk5SxWlOLXQZavrzacQngIe2n1fGu3pI1Jf4Xrq8lJVGYPgXz1 vI0Jb6A8jIPpMs1pjw20ex7KQhUb071KeSC70GOaUxqjOSnoSoub55WHcS/Op8e0pwOPH8/jHqCc fYk+z4dArmW/QAOohp9p+lOUbGOil/oQyBnsFWQAcdw5eIq2Ic6+ND/mSyjfor+MoA+yaXy71wOc pWxjMDcImcj1yKLxj2sNYuxLsT/nyBzkAWKGcBX7CJ0kC6u2u0+h3INL6C4jaIhttP4xjbUvvcV9 WwK6EdXoLiO4AJtpfgQQwD6UsC+9Y3wL53KUprsMGQJ20f4IIIDb7UtuCx/D+T2K0V2GTAfybIEA AphuX2qjfFgSfEKTeZi4IfSh/RHAYVS2L7WP+hrSz2x8uWIlr3IAQAD32JfY8j4v+BjJzsFGEI3p HADwqY2pneBzUF+ju4zgLGQ4PwDstHEp+zW+h/VVussIbuE9AK7gRCCHAHcZ7/wA8KyNaX1Eg8C+ THcZQClscnwA+NHGtMZr0SGecwEm0MvxASDbznMuhmsR3Nf5RkB7YrDM8SGgoY1pPV+TXnDvs2GI 9rTnWgAbmalJeD/nUWLa863TA8D/7EzqTdoEeAr3CGhOC04D2vhst1abEH+PeLpMY6KcPls4y9bl 6//RKMjLUJU+Y61oqip2JrU4tmsU5E3sGqQx8ch0eABoZmtaX9AqzLvRik7TlvccHgBuszWpFbBf s0UX3ek0TWnj8ADwmL1pHaFdsIcgmm7TkGIONw0fZm9aa+OIduH+wsZmjBbwjbMDwCSb0/qZhgFf xB7CGtLP2QFgjs1pvUTLA6K3oCkdpxn1nB0AfrU7sZO0DPoh9KfntCJasyljdfrd7sQ21PIeIIAA xtl4RqvB/OboALDB9sR+rW3oF6EGfacNqY4OABm2J7apxsHfgTZ0niY852xTEOuZqXH4j+Bldg3Q gjscHQAO2J/aKzVPwVxuFtKADo4OALtcSO5U7ZOQQAf6zLWODgBbXEjuJdq+C/hXORjM7kG+coWj A8BfnOPVRUtRnz708UeC6wAspg4OG5CM/ejH7UI+cYGjA8BiVxI82pCEzLS1R4vmXO3oADDLlQRX wwFjlmZ0pR+V09HRAWC8OykeaFBaJuMselIp9zo6ADh0hlU8thmUmJ1IpCsV8pSjA8DDLiW5r2HJ 4X2AOt5hT0D7idXg8PBw7wN68YxBJfzq6ADQwq0032xgimbjfPpTMkVx0NEBwLn+VLMNTNJBDEFx ulQijR21/1737i8batgqNBT9gdb0Kd8BCNaPLiZ7pMHvbDkpKIcvHB0ARrmY7NJaHRsWnjKRjKL0 q2BKOtsRsJ+bCX/A6KSt5uZhwXRz1P4BVx8rY7DY8MRNRi36VhgTHbV/Dsq7mvKrtO8QELyV02so Re8KIN7Zg8F+dzntH1qQwO1IQmE62CNPOPsAMMrltFdAhhVJ/BPduVbQA0Wx2dkB4C63U59oTSLn oAmdHCF9nLV/wPV5pGjMtWg65wtcQDdHMB38h7P238L010O2RQk9gnE4l0kNiwcc/v2fwPQDL1qW 1IMYi+pMa4hUxE6HB4DbWABAMay2LrFZeAMVmdoQ+Mhh+x9CaRYAADQ1dHNQsFUCI7hvIAjXOmz/ AL5jAfzLW5ameD+G4mymNx9KYa3TA8AjLIF/KWFxKRzAMJ48mOcboClO2z+AOiyCE7Q0fmFwwROD Y1CPSc7FM47bfxlLIDdvW7/tYxKaMs3Hn/4POz4APM4iyE1J/OlA2mejHZcN42JLFoF7WTHCx8I8 HgOOOJH833C30+cQX2jU6RBy9C3tnhevOVMAW5Hi6EvCOg5v/TmhHjR7XhTBIoeKIBupaOxYhmtj E+2PLJxJs+d3e3jAuZvBm1HIkexehX9ofwQwlkbPn34OFsRmpKCG9ZlNtGrjlxddRpvnTxSmOTov nIYExFqa1UJIofGPaR5NXjBnOzxLvBkvWbih+GzMovGPqwstHozrrV4XGHzJUBq6o5g1d3TdsYO2 P64N1t7l8YWg4BeFQyx4R3AO0mh6rgAMn8JYwGJBAKvxrLGbRmLRF3uZw1zah7I0d6i/HTtZMMf0 Cx5HbaOyF41uDvf6y18DaezQ6cSCOWUJ8TOGtB29EUuYrzx//8vT1uEwlEVzmtZiKFpru5cgFp3w I7OUj16lpcOdCZjHsslTezERfTR7YVgNL3ChbwHKRAVaOlzOwhaWToH3AyPR2fcby1i0x2RH9nJG rtdp50i4GodYPEG1Eu/iTh/uCIqiHd7je/6Q7tn4+x8h/Vg+YawemIJk3CC92KJwPvpiKjIZ8xA1 gEaOvNg+ZgFFsKh4Ol7H3WgkdOtpebTG45jE3/ww9Zc1Kzt9oQR+YxF50D/4AWPwDHqjA5qgaljv EOJRD22RhGGYjo2MZYTqRhN7ozp3kgtVBpbjO6TiPQxHClLQ/5hexCCMQCqmYBbSsYq3+EK0gH0g vdPUuVYhlC1qRvuKoBdLiTJQH9K6ohjMcqIM0y5UpnFFEYPJLCnKKPWibUUSj6UsKsoYzeb0n/jF wetZWJQRysb5NKx4GrDNBGWEkmlWObTl/gBKey12+gA4vhKknNYBXESbyuRlFhmlsfrRonKJwrss M0pTfY9oWlT+qoBPWGqUhtqJqrSnCoryxBlKQ3WlNVVxBtJZcJRWGkFbqqQsVrDoKG20iK0/VFMN f7PwKC2U4cAx7xpSk71qKA2Ug5tpRn+ozY70lO96iUb0j3psGkb5qhkoRBv6yUXYzjKkfNJKlKIF /aY+21VTvmiHYac3W0sjZLAcKcU6iBa0nj53AZwLoNSqN22n13TgZhYlpUyv0XL6vRRk2zBKjT7i vj8dqY41LE5Kumay64+uVMMqFiglVQtQgkbTlwr4hUVKSdMqlKfJ9KYEprNQKSnagGo0mP4UxUQW KyVcW1CX5jKDGIxkwVJCtRX1aCxziGIHYUrorz/P+zGOnjjI0qWE/PpfQDuZyLXYzfKlaH93qY8N LGHKgzbx5t9sKnNlABWx1qImLWQ6Z+BrljIVgRajIu1jx2vBFJYzFfai3zK0jj3chiwWNRWyZnDN v21czp4BVIgah1gaxsYJwQUsbiqohnC/v60Uw4cscKoAHcDttIndJCKbhU7lqR1oToPYz6VYx2Kn TtMfqENzuEE5dg2gTtFMlKYx3CEK/XGEZU8d0wjO+7tHW2xj6VPYi840g5tUwDQawHGt5m4/tx8F kvhWwGFNRjxN4DpNeKKAkzqExxHF8idASXxAQzimv9CUhU9OcDt20hbOaALOZMmT3FTEJFrDAWUh icVO8p4S7IO9tIjV+pX9/UlBVMcs2sTaab8UFGaJk4KJxiNsH2KhlqAhi5uERg2k0TKW/fbzWG8S 1nxAd2yndazQMlzGgiaRvBdIpX0MVzaeR1GWMomUdviLNjJW3/NgD+KV4kjmfgEDtQOJXOpLxFCb x4sYpRyMRVmWLRFJF540aIh+xuUsVyKeOCTjAA2mtTYiETEsVSKLOvicNtNUmXgWxVmiRDaNMZt2 0+6pPxXVWZpEDVHoiFW0nTZKQyMWJVFLLBJ53qAG+gHXsBiJPxRHf+yhCX3Tb0hgERJ/KYdk7KIZ fVjhn8CFPkQPyiCZLcUUaiG682Uf0YuS6I8dNKd0zUV7/vITPSmBJE4MStMRTEITFhnRfRDox/OH hSsL77CbHzGFaLTCJOTQuIKW9yZzaw8xjzoYgkwa2OMTfwIKsZSIqZTF41hPI0egXfgf23kQGyiE TpiCwzR1yOv6Z+EOxLFwiE1UQhIW095BtAEpqMliIbZyBUZy3WCe2ofxuA7RLBFiO3G4HdNxiKY/ vo//E3TiLT9xi1LojkmOdxjaj0nojpIsBuIq8bgdnzt4FNl2fIhbaX1CAKAEOmOCIycRLUEKmnEr DyGnEoPL8BTmWDo7sAeTcT/bdhESjOJohRQss2aKLw3JaMWDuQkJj3PRHcPxG44YafzdSMOTaIpY JpIQbzMEzdAfk4zoNnAIyzAWSWjIN/qEiJ4juADd8AqmaXdG0V78hFFIwuU8iZcQFZRBSyThXSzw 7d3BPqTjfTyKdqjODj2E+EdR1EArJCIFqUjHPkmGz8YapGEsUpCIVqhB0xOiJ/GoiytxC+5HMoZh ImYhHSuwDhnYH8TkB5CBdViBdHyLzzAMybgfCbgK56Mcw0qIDZRCRdQ4TZVRir/phBBCCCGEEEII IYQQQgghhBBCCCGEEEIIIYQQQgghhBBCCCGEEKIB/wekPYmBuan58AAAAABJRU5ErkJggg== "
     id="image3980"
     x="0"
     y="0" />
  <path
     style="fill:#ff0000"
     d="M 234,494.59731 C 193.13102,488.98406 156.44469,472.68263 121,444.38621 109.24263,434.99999 87.938627,413.52993 78.24006,401.29296 24.709921,333.75241 4.0594012,244.86745 26.060812,176.70053 c 4.1989,-13.00944 13.759105,-31.71253 21.371802,-41.81069 7.650587,-10.14842 19.537345,-21.60675 29.418655,-28.35835 l 7.071244,-4.83157 -1.982281,-2.783856 C 79.50048,95.489748 69.180947,86.465878 62.648292,82.046312 l -4.851707,-3.282347 8.851707,-3.943383 C 97.884179,60.905178 132.0612,54.187074 158.12533,56.839135 c 14.11751,1.436477 28.83423,4.949476 40.80371,9.740175 5.03751,2.016229 9.02678,3.794549 8.86504,3.951823 -0.16175,0.157275 -5.69408,3.29038 -12.29408,6.962457 -23.10186,12.8533 -36.96026,22.80681 -50.02413,35.92879 -12.91408,12.97153 -18.73987,20.93071 -26.0039,35.52647 -2.53248,5.08857 -4.74982,9.09426 -4.92742,8.90154 -0.1776,-0.19271 -1.95465,-4.30976 -3.949,-9.14899 -4.31955,-10.48125 -13.167234,-28.31865 -14.435323,-29.10237 -1.057869,-0.6538 -8.019813,8.00181 -14.398246,17.90097 -12.278644,19.05614 -20.860249,41.52428 -24.42362,63.94531 -1.978866,12.45119 -1.353865,40.23843 1.157899,51.47957 9.437547,42.23675 36.582395,78.74092 79.95588,107.52402 14.53001,9.64226 40.8568,23.29845 57.54786,29.85114 41.60569,16.33384 78.52286,17.40165 102.87286,2.97555 16.3636,-9.69457 25.43673,-27.75459 22.33169,-44.45111 -3.15481,-16.96419 -12.01947,-26.94719 -37.94004,-42.72642 C 211.24204,262.25413 172.35072,215.96203 169.3447,170.5 167.46284,142.03927 181.41892,114.84587 208.08539,95.013822 234.52984,75.3469 271.95343,64.810624 310.1495,66.278589 318.31728,66.592495 325,66.64327 325,66.39142 325,64.090529 318.69308,54.550791 314.40253,50.361878 303.91655,40.124287 287.61737,34.405788 265.5,33.204634 l -13,-0.706006 7.82457,-3.309296 c 13.87172,-5.866863 21.58965,-7.437478 37.17543,-7.56528 10.45542,-0.08573 16.02547,0.356748 22,1.747664 22.7995,5.307899 43.106,17.658283 59.64519,36.276129 l 4.6452,5.229002 0.60793,-2.688423 c 0.33437,-1.478633 0.90212,-10.528388 1.26168,-20.110567 l 0.65374,-17.422143 2.39665,2.922143 c 5.64967,6.888426 15.55344,22.712421 19.69324,31.465368 6.48309,13.707458 9.65419,25.394605 10.29888,37.956775 0.63368,12.34747 0.5703,12.24908 14.80276,22.98167 12.02876,9.07079 24.64045,16.65565 41.75633,25.11284 7.79116,3.84973 14.35524,7.189 14.58685,7.42061 0.84676,0.84676 -20.3359,60.51181 -21.3457,60.12431 -0.57063,-0.21897 -22.17968,-6.27984 -48.02013,-13.46861 C 394.64218,191.98205 363.6,183.34351 351.5,179.97404 c -12.1,-3.36946 -22.28918,-6.42953 -22.64261,-6.80016 -0.35344,-0.37064 -1.19428,-9.89888 -1.86853,-21.17388 -0.67425,-11.275 -1.36172,-20.65165 -1.52772,-20.837 -0.16599,-0.18535 -3.82515,-0.77477 -8.13147,-1.30984 -17.67447,-2.19606 -36.5733,3.33784 -46.99699,13.76153 -12.4094,12.4094 -13.19134,30.76218 -2.09434,49.15599 4.7836,7.92905 16.47203,20.06892 27.01711,28.06056 17.84407,13.52324 34.23825,22.2734 66.60903,35.55162 21.24068,8.71275 33.39503,15.18461 45.30721,24.12484 39.14332,29.37754 49.11475,71.73134 27.24952,115.74275 -23.9442,48.19607 -78.68488,85.69672 -141.42121,96.88202 -14.64091,2.61034 -45.14563,3.3677 -59,1.46484 z M 389.11351,134.98263 c 2.96257,-0.55955 7.28497,-1.74033 9.60533,-2.62396 5.1448,-1.9592 5.06453,-2.17566 -4.67379,-12.60335 -8.30073,-8.88834 -18.58436,-16.9777 -29.46681,-23.179338 -8.44175,-4.810737 -22.21936,-10.268199 -23.27004,-9.217517 -1.26563,1.265631 -1.50561,11.373549 -0.3967,16.709345 4.66353,22.43989 24.7762,35.33935 48.20201,30.91482 z"
     id="path3982"
     inkscape:connector-curvature="0" />
</svg>
